…
The table below shows the first few rows of the `bpd_stops_1120` table.

``` r
bpd_stops_1120
#> # A tibble: 240,092 × 6
#> # Groups:   citation_number, officer_id, event_date, location_name [240,092]
#>    citation_number officer_id event_date          location_name race  
#>    <chr>           <chr>      <dttm>              <chr>         <chr> 
#>  1 019891AA        99877      2018-02-10 00:00:00 Dorchester    BLACK 
#>  2 019892AA        99877      2018-02-10 00:00:00 Dorchester    BLACK 
#>  3 019893AA        99877      2018-02-10 00:00:00 Dorchester    BLACK 
#>  4 019895AA        99877      2018-02-10 00:00:00 Dorchester    HISP  
#>  5 019896AA        99877      2018-02-10 00:00:00 Dorchester    BLACK 
#>  6 019899AA        99877      2018-02-10 00:00:00 Dorchester    BLACK 
#>  7 019901AA        99877      2018-02-10 00:00:00 Dorchester    HISP  
#>  8 020114AA        4159       2018-02-11 00:00:00 Roxbury       BLACK 
#>  9 020270AA        131215     2018-02-10 00:00:00 Boston        UNKNWN
#> 10 020630AA        99877      2018-02-12 00:00:00 Dorchester    WHITE 
#> # ℹ 240,082 more rows
#> # ℹ 1 more variable: num_offenses <int>
```
…
